<svg width="207pt" height="207pt" viewBox="0 0 207 207" version="1.1" xmlns="http://www.w3.org/2000/svg">
<g id="#010101ff">
<path opacity="1.00" d=" M 4.01 4.25 C 8.34 4.25 12.66 4.25 16.99 4.25 C 17.01 35.16 16.99 66.08 17.00 97.00 C 56.95 97.00 96.90 97.00 136.86 96.99 C 119.35 79.46 101.80 61.97 84.31 44.42 C 87.37 41.64 90.11 38.52 93.31 35.91 C 115.85 58.50 138.44 81.05 161.00 103.62 C 138.44 126.20 115.85 148.76 93.29 171.34 C 90.16 168.56 87.12 165.68 84.12 162.76 C 101.76 145.08 119.46 127.44 137.10 109.75 C 126.72 109.84 116.33 109.53 105.96 110.00 C 71.97 110.00 37.99 110.00 4.00 110.00 C 4.00 74.75 3.99 39.50 4.01 4.25 Z" />
</g>
</svg>
